%YAML 1.1
%TAG !u! tag:unity3d.com,2011:
--- !u!21 &2100000
Material:
  serializedVersion: 6
  m_ObjectHideFlags: 0
  m_PrefabParentObject: {fileID: 0}
  m_PrefabInternal: {fileID: 0}
  m_Name: watermat
  m_Shader: {fileID: 4800000, guid: 248cdefb86805694d9c4377e0fad07e2, type: 3}
  m_ShaderKeywords: 
  m_LightmapFlags: 5
  m_CustomRenderQueue: -1
  stringTagMap: {}
  m_SavedProperties:
    serializedVersion: 2
    m_TexEnvs:
    - first:
        name: _Cube
      second:
        m_Texture: {fileID: 0}
        m_Scale: {x: 1, y: 1}
        m_Offset: {x: 0, y: 0}
    m_Floats:
    - first:
        name: _Height
      second: 50
    - first:
        name: _WaveAmp
      second: 0.2
    - first:
        name: _WaveK
      second: 2
    - first:
        name: _WaveLength
      second: 1
    - first:
        name: _WavePhase
      second: 0
    m_Colors:
    - first:
        name: _Center
      second: {r: 0, g: 0, b: 0, a: 0}
    - first:
        name: _PlayerPos
      second: {r: 0, g: 1, b: 0, a: 1}
    - first:
        name: _Ratios
      second: {r: 1, g: 0.8, b: 0.66, a: 0.5}
    - first:
        name: _Weights
      second: {r: 1, g: 0.5, b: 0.25, a: 0.125}
